%YAML 1.1
%TAG !u! tag:unity3d.com,2011:
--- !u!1 &1899431023884397327
GameObject:
  m_ObjectHideFlags: 0
  m_CorrespondingSourceObject: {fileID: 0}
  m_PrefabInstance: {fileID: 0}
  m_PrefabAsset: {fileID: 0}
  serializedVersion: 6
  m_Component:
  - component: {fileID: 1899431023884397326}
  - component: {fileID: 1899431023884397321}
  m_Layer: 0
  m_Name: AstroidSpawner
  m_TagString: Untagged
  m_Icon: {fileID: 0}
  m_NavMeshLayer: 0
  m_StaticEditorFlags: 0
  m_IsActive: 1
--- !u!4 &1899431023884397326
Transform:
  m_ObjectHideFlags: 0
  m_CorrespondingSourceObject: {fileID: 0}
  m_PrefabInstance: {fileID: 0}
  m_PrefabAsset: {fileID: 0}
  m_GameObject: {fileID: 1899431023884397327}
  m_LocalRotation: {x: 0, y: 0, z: 0, w: 1}
  m_LocalPosition: {x: 0, y: 0, z: 0}
  m_LocalScale: {x: 1, y: 1, z: 1}
  m_Children: []
  m_Father: {fileID: 0}
  m_RootOrder: 0
  m_LocalEulerAnglesHint: {x: 0, y: 0, z: 0}
--- !u!114 &1899431023884397321
MonoBehaviour:
  m_ObjectHideFlags: 0
  m_CorrespondingSourceObject: {fileID: 0}
  m_PrefabInstance: {fileID: 0}
  m_PrefabAsset: {fileID: 0}
  m_GameObject: {fileID: 1899431023884397327}
  m_Enabled: 1
  m_EditorHideFlags: 0
  m_Script: {fileID: 11500000, guid: 7f1026cef20061746b1128606ecfa15f, type: 3}
  m_Name: 
  m_EditorClassIdentifier: 
  prefabs:
  - {fileID: 151664, guid: fa49e460baf435b4780da7196c2ab473, type: 3}
  - {fileID: 141316, guid: 84cc3cd234dfc9d4d9d2e92c0eb0af75, type: 3}
  - {fileID: 130102, guid: 04d0bf4be9447154188d86f6e3b8dce9, type: 3}
  spawnBoundries: {x: 1400, y: 1400, z: 1400}
  objects: 250
  minScale: 5
  maxSclae: 10
