%YAML 1.1
%TAG !u! tag:unity3d.com,2011:
--- !u!1 &8270787126484710475
GameObject:
  m_ObjectHideFlags: 0
  m_CorrespondingSourceObject: {fileID: 0}
  m_PrefabInstance: {fileID: 0}
  m_PrefabAsset: {fileID: 0}
  serializedVersion: 6
  m_Component:
  - component: {fileID: 8270787126484710474}
  - component: {fileID: 8270787126484710473}
  - component: {fileID: 8270787126484710472}
  m_Layer: 0
  m_Name: ItemsSpawner
  m_TagString: Untagged
  m_Icon: {fileID: 0}
  m_NavMeshLayer: 0
  m_StaticEditorFlags: 0
  m_IsActive: 1
--- !u!4 &8270787126484710474
Transform:
  m_ObjectHideFlags: 0
  m_CorrespondingSourceObject: {fileID: 0}
  m_PrefabInstance: {fileID: 0}
  m_PrefabAsset: {fileID: 0}
  m_GameObject: {fileID: 8270787126484710475}
  m_LocalRotation: {x: 0, y: 0, z: 0, w: 1}
  m_LocalPosition: {x: 0, y: 0, z: 0}
  m_LocalScale: {x: 1, y: 1, z: 1}
  m_Children: []
  m_Father: {fileID: 0}
  m_RootOrder: 0
  m_LocalEulerAnglesHint: {x: 0, y: 0, z: 0}
--- !u!114 &8270787126484710473
MonoBehaviour:
  m_ObjectHideFlags: 0
  m_CorrespondingSourceObject: {fileID: 0}
  m_PrefabInstance: {fileID: 0}
  m_PrefabAsset: {fileID: 0}
  m_GameObject: {fileID: 8270787126484710475}
  m_Enabled: 1
  m_EditorHideFlags: 0
  m_Script: {fileID: 11500000, guid: d657e7c225190b048887822921d58bc1, type: 3}
  m_Name: 
  m_EditorClassIdentifier: 
  healthItemPrefab: {fileID: 2601541159663845554, guid: ea3d0019018b7bc4785e8cea2a254afa,
    type: 3}
  shieldItemPrefab: {fileID: 0}
--- !u!114 &8270787126484710472
MonoBehaviour:
  m_ObjectHideFlags: 0
  m_CorrespondingSourceObject: {fileID: 0}
  m_PrefabInstance: {fileID: 0}
  m_PrefabAsset: {fileID: 0}
  m_GameObject: {fileID: 8270787126484710475}
  m_Enabled: 1
  m_EditorHideFlags: 0
  m_Script: {fileID: 11500000, guid: 2b8d8a8a79864284ea2d411122da82e0, type: 3}
  m_Name: 
  m_EditorClassIdentifier: 
  ItemsPrefabs:
  - {fileID: 2601541159663845554, guid: ea3d0019018b7bc4785e8cea2a254afa, type: 3}
